Reproducible Document
…
Simple Code

3 * 3

[1] 9

Testing for Git

Its very cold

Showing the data

post_meal_data

# A tibble: 31 × 85
   OFS.ID  Group   Age   BMI Length Weight Bone.mineral.DXA Fat.mass...DXA
   <chr>   <chr> <dbl> <dbl>  <dbl>  <dbl>            <dbl>          <dbl>
 1 OFS 301 FDR      50  27.5   1.83   92               3.54           30.2
 2 OFS 302 FDR      51  33.7   1.77  106.              4.05           36.4
 3 OFS 304 FDR      43  26.3   1.84   89.1             3.77           24.4
 4 OFS 303 FDR      55  25.9   1.8    84               3.14           27.5
 5 OFS 305 FDR      53  29.4   1.84   99.4             4.09           31.2
 6 OFS 306 FDR      51  23.7   1.8    76.8             3.21           20  
 7 OFS 307 FDR      48  23.9   1.78   75.8             3.33           15.4
 8 OFS 308 FDR      35  22     1.75   67.5             3.26           13.8
 9 OFS 309 FDR      54  26.4   1.83   87.9             4.49           20  
10 OFS 310 FDR      52  24.5   1.72   72.2             2.87           28.5
# ℹ 21 more rows
# ℹ 77 more variables: Fat.mass.DXA <dbl>, Fat.free.mass.DXA <dbl>,
#   Fat.free.soft.tissue.DXA <dbl>, FP.Glucose.screen <dbl>,
#   P.Glucose..5.OGTT <dbl>, P.Glucose.0.OGTT <dbl>, P.GLucose.30.OGTT <dbl>,
#   P.Glucose.60.OGTT <dbl>, P.Glucose.90.OGTT <dbl>, P.Glucose.120.OGTT <dbl>,
#   FS.Insulin.screen <dbl>, Insulin..5.OGTT.X <dbl>, Insulin.0.OGTT.X <dbl>,
#   Insulin.0.OGTT <dbl>, Insulin.30.OGTT <dbl>, Insulin.60.OGTT <dbl>, …
…
